Multiple imputation of missing data with mice
…
Pretty reasonable residual plots. A good idea is to repeat this for more than one completed dataset. If you decide transformations are needed, you might reconsider the imputation models too and fit them with transformed values.

If you want to do multiple imputation inferences on all m=5 data sets, use the with command. For example, to fit a linear regression of bmi on age + hyp + chl:

bmiregMI5 = with(data=nhanes2MI5, lm(bmi~age+hyp+chl))
summary(bmiregMI5)

## # A tibble: 25 x 5
##    term        estimate std.error statistic    p.value
##    <chr>          <dbl>     <dbl>     <dbl>      <dbl>
##  1 (Intercept)  13.7       2.37       5.77  0.0000121 
##  2 age40-59     -5.58      1.27      -4.41  0.000269  
##  3 age60-99    -10.3       1.67      -6.15  0.00000527
##  4 hypyes        1.09      1.63       0.670 0.511     
##  5 chl           0.0839    0.0139     6.04  0.00000663
##  6 (Intercept)  12.3       2.44       5.06  0.0000601 
##  7 age40-59     -5.97      1.46      -4.08  0.000581  
##  8 age60-99    -11.9       1.74      -6.82  0.00000124
##  9 hypyes        0.350     1.53       0.229 0.822     
## 10 chl           0.0955    0.0143     6.66  0.00000176
## # ... with 15 more rows
…
